{
    "1":
    {
        "dns": null,
        "priority": null,
        "model": "MURANO 3.5",
        "compl": "4WD CVT HIGH PLUS MY20",
        "kpp": "CVT",
        "engine": "3,5",
        "vin": null,
        "color": "CAM - темно-коричневый",
        "class": null,
        "year": 2020,
        "price": null,
        "discount_distribute": null,
        "discount_trade-in": null,
        "discount_loyalty": null,
        "price_special": null,
        "benefit": null
    },
    "2":
    {
        "dns": null,
        "priority": null,
        "model": "MURANO 3.5",
        "compl": "3.5 4WD Top MY20",
        "kpp": "CVT",
        "engine": "3,5",
        "vin": null,
        "color": "QAB - белый перламутр",
        "class": null,
        "year": 2020,
        "price": null,
        "discount_distribute": null,
        "discount_trade-in": null,
        "discount_loyalty": null,
        "price_special": null,
        "benefit": null
    },
    "3":
    {
        "dns": null,
        "priority": null,
        "model": "MURANO 3.5",
        "compl": "3.5 4WD Top MY20",
        "kpp": "CVT",
        "engine": "3,5",
        "vin": null,
        "color": "RBG - темно-синий ",
        "class": null,
        "year": 2020,
        "price": null,
        "discount_distribute": null,
        "discount_trade-in": null,
        "discount_loyalty": null,
        "price_special": null,
        "benefit": null
    },
    "4":
    {
        "dns": null,
        "priority": null,
        "model": "MURANO 3.5",
        "compl": "3.5 4WD Top MY20",
        "kpp": "CVT",
        "engine": "3,5",
        "vin": null,
        "color": "RBG - темно-синий",
        "class": null,
        "year": 2020,
        "price": null,
        "discount_distribute": null,
        "discount_trade-in": null,
        "discount_loyalty": null,
        "price_special": null,
        "benefit": null
    },
    "5":
    {
        "dns": null,
        "priority": null,
        "model": "MURANO 3.5",
        "compl": "4WD 3.5  CVT HIGH MY20",
        "kpp": "CVT",
        "engine": "3,5",
        "vin": null,
        "color": "G41 - черный",
        "class": null,
        "year": 2020,
        "price": null,
        "discount_distribute": null,
        "discount_trade-in": null,
        "discount_loyalty": null,
        "price_special": null,
        "benefit": null
    },
    "6":
    {
        "dns": null,
        "priority": null,
        "model": "MURANO 3.5",
        "compl": "4WD 3.5  CVT HIGH MY20",
        "kpp": "CVT",
        "engine": "3,5",
        "vin": null,
        "color": "QAB  белый перламутр",
        "class": null,
        "year": 2020,
        "price": null,
        "discount_distribute": null,
        "discount_trade-in": null,
        "discount_loyalty": null,
        "price_special": null,
        "benefit": null
    },
    "7":
    {
        "dns": null,
        "priority": null,
        "model": "QASHQAI MC 2.0",
        "compl": "2WD CVT SE MY20 new",
        "kpp": "CVT",
        "engine": "2.0",
        "vin": null,
        "color": "G41 - черный",
        "class": null,
        "year": 2020,
        "price": null,
        "discount_distribute": null,
        "discount_trade-in": null,
        "discount_loyalty": null,
        "price_special": null,
        "benefit": null
    },
    "8":
    {
        "dns": null,
        "priority": null,
        "model": "QASHQAI MC 2.0",
        "compl": "2WD CVT SE MY20 new",
        "kpp": "CVT",
        "engine": "2.0",
        "vin": null,
        "color": "K23 - серебристый",
        "class": null,
        "year": 2020,
        "price": null,
        "discount_distribute": null,
        "discount_trade-in": null,
        "discount_loyalty": null,
        "price_special": null,
        "benefit": null
    },
    "9":
    {
        "dns": null,
        "priority": null,
        "model": "QASHQAI MC 2.0",
        "compl": "2WD CVT SE MY20 new",
        "kpp": "CVT",
        "engine": "2.0",
        "vin": null,
        "color": "NAH - красный ",
        "class": null,
        "year": 2020,
        "price": null,
        "discount_distribute": null,
        "discount_trade-in": null,
        "discount_loyalty": null,
        "price_special": null,
        "benefit": null
    },
    "10":
    {
        "dns": null,
        "priority": null,
        "model": "QASHQAI MC 2.0",
        "compl": "2WD CVT SE MY20 new",
        "kpp": "CVT",
        "engine": "2.0",
        "vin": null,
        "color": "QAB - белый перламутр",
        "class": null,
        "year": 2020,
        "price": null,
        "discount_distribute": null,
        "discount_trade-in": null,
        "discount_loyalty": null,
        "price_special": null,
        "benefit": null
    },
    "11":
    {
        "dns": null,
        "priority": null,
        "model": "QASHQAI MC 2.0",
        "compl": "2WD CVT SE MY20 new",
        "kpp": "CVT",
        "engine": "2.0",
        "vin": null,
        "color": "RBN - синий",
        "class": null,
        "year": 2020,
        "price": null,
        "discount_distribute": null,
        "discount_trade-in": null,
        "discount_loyalty": null,
        "price_special": null,
        "benefit": null
    },
    "12":
    {
        "dns": null,
        "priority": null,
        "model": "QASHQAI MC 2.0",
        "compl": "2WD CVT SE TOP MY20 new",
        "kpp": "CVT",
        "engine": "2.0",
        "vin": null,
        "color": "G41 - черный",
        "class": null,
        "year": 2020,
        "price": null,
        "discount_distribute": null,
        "discount_trade-in": null,
        "discount_loyalty": null,
        "price_special": null,
        "benefit": null
    },
    "13":
    {
        "dns": null,
        "priority": null,
        "model": "QASHQAI MC 2.0",
        "compl": "2WD CVT SE TOP MY20 new",
        "kpp": "CVT",
        "engine": "2.0",
        "vin": null,
        "color": "KAD - серый ",
        "class": null,
        "year": 2020,
        "price": null,
        "discount_distribute": null,
        "discount_trade-in": null,
        "discount_loyalty": null,
        "price_special": null,
        "benefit": null
    },
    "14":
    {
        "dns": null,
        "priority": null,
        "model": "QASHQAI MC 2.0",
        "compl": "2WD CVT SE YANDEX MY20 new",
        "kpp": "CVT",
        "engine": "2.0",
        "vin": null,
        "color": "K23 - серебристый ",
        "class": null,
        "year": 2020,
        "price": null,
        "discount_distribute": null,
        "discount_trade-in": null,
        "discount_loyalty": null,
        "price_special": null,
        "benefit": null
    },
    "15":
    {
        "dns": null,
        "priority": null,
        "model": "QASHQAI MC 2.0",
        "compl": "2WD CVT SE YANDEX MY20 new",
        "kpp": "CVT",
        "engine": "2.0",
        "vin": null,
        "color": "QM1 - белый",
        "class": null,
        "year": 2020,
        "price": null,
        "discount_distribute": null,
        "discount_trade-in": null,
        "discount_loyalty": null,
        "price_special": null,
        "benefit": null
    },
    "16":
    {
        "dns": null,
        "priority": null,
        "model": "QASHQAI MC 2.0",
        "compl": "2WD CVT SE YANDEX MY20 new",
        "kpp": "CVT",
        "engine": "2.0",
        "vin": null,
        "color": "RCA голубой",
        "class": null,
        "year": 2020,
        "price": null,
        "discount_distribute": null,
        "discount_trade-in": null,
        "discount_loyalty": null,
        "price_special": null,
        "benefit": null
    },
    "17":
    {
        "dns": null,
        "priority": null,
        "model": "QASHQAI MC 2.0",
        "compl": "2WD CVT SE+ MY20 new",
        "kpp": "CVT",
        "engine": "2.0",
        "vin": null,
        "color": "QAB - белый перламутр",
        "class": null,
        "year": 2020,
        "price": null,
        "discount_distribute": null,
        "discount_trade-in": null,
        "discount_loyalty": null,
        "price_special": null,
        "benefit": null
    },
    "18":
    {
        "dns": null,
        "priority": null,
        "model": "QASHQAI MC 2.0",
        "compl": "2WD CVT SE+ MY20 new",
        "kpp": "CVT",
        "engine": "2.0",
        "vin": null,
        "color": "RBN - синий",
        "class": null,
        "year": 2020,
        "price": null,
        "discount_distribute": null,
        "discount_trade-in": null,
        "discount_loyalty": null,
        "price_special": null,
        "benefit": null
    },
    "19":
    {
        "dns": null,
        "priority": null,
        "model": "QASHQAI MC 2.0",
        "compl": "4WD CVT LE TOP COFFEE",
        "kpp": "CVT",
        "engine": "2.0",
        "vin": null,
        "color": "G41 - черный",
        "class": null,
        "year": 2020,
        "price": null,
        "discount_distribute": null,
        "discount_trade-in": null,
        "discount_loyalty": null,
        "price_special": null,
        "benefit": null
    },
    "20":
    {
        "dns": null,
        "priority": null,
        "model": "QASHQAI MC 2.0",
        "compl": "4WD CVT LE TOP COFFEE",
        "kpp": "CVT",
        "engine": "2.0",
        "vin": null,
        "color": "KAD - серый ",
        "class": null,
        "year": 2020,
        "price": null,
        "discount_distribute": null,
        "discount_trade-in": null,
        "discount_loyalty": null,
        "price_special": null,
        "benefit": null
    },
    "21":
    {
        "dns": null,
        "priority": null,
        "model": "QASHQAI MC 2.0",
        "compl": "4WD CVT LE TOP COFFEE",
        "kpp": "CVT",
        "engine": "2.0",
        "vin": null,
        "color": "NAH - красный ",
        "class": null,
        "year": 2020,
        "price": null,
        "discount_distribute": null,
        "discount_trade-in": null,
        "discount_loyalty": null,
        "price_special": null,
        "benefit": null
    },
    "22":
    {
        "dns": null,
        "priority": null,
        "model": "QASHQAI MC 2.0",
        "compl": "4WD CVT LE YANDEX",
        "kpp": "CVT",
        "engine": "2.0",
        "vin": null,
        "color": "G41 - черный",
        "class": null,
        "year": 2020,
        "price": null,
        "discount_distribute": null,
        "discount_trade-in": null,
        "discount_loyalty": null,
        "price_special": null,
        "benefit": null
    },
    "23":
    {
        "dns": null,
        "priority": null,
        "model": "QASHQAI MC 2.0",
        "compl": "4WD CVT LE YANDEX COFFEE",
        "kpp": "CVT",
        "engine": "2.0",
        "vin": null,
        "color": "KAD - серый",
        "class": null,
        "year": 2020,
        "price": null,
        "discount_distribute": null,
        "discount_trade-in": null,
        "discount_loyalty": null,
        "price_special": null,
        "benefit": null
    },
    "24":
    {
        "dns": null,
        "priority": null,
        "model": "QASHQAI MC 2.0",
        "compl": "4WD CVT SE MY20 new",
        "kpp": "CVT",
        "engine": "2.0",
        "vin": null,
        "color": "G41 - черный",
        "class": null,
        "year": 2020,
        "price": null,
        "discount_distribute": null,
        "discount_trade-in": null,
        "discount_loyalty": null,
        "price_special": null,
        "benefit": null
    },
    "25":
    {
        "dns": null,
        "priority": null,
        "model": "QASHQAI MC 2.0",
        "compl": "4WD CVT SE MY20 new",
        "kpp": "CVT",
        "engine": "2.0",
        "vin": null,
        "color": "G41 - черный",
        "class": null,
        "year": 2020,
        "price": null,
        "discount_distribute": null,
        "discount_trade-in": null,
        "discount_loyalty": null,
        "price_special": null,
        "benefit": null
    },
    "26":
    {
        "dns": null,
        "priority": null,
        "model": "QASHQAI MC 2.0",
        "compl": "4WD CVT SE MY20 new",
        "kpp": "CVT",
        "engine": "2.0",
        "vin": null,
        "color": "K23 - серебристый ",
        "class": null,
        "year": 2020,
        "price": null,
        "discount_distribute": null,
        "discount_trade-in": null,
        "discount_loyalty": null,
        "price_special": null,
        "benefit": null
    },
    "27":
    {
        "dns": null,
        "priority": null,
        "model": "QASHQAI MC 2.0",
        "compl": "4WD CVT SE MY20 new",
        "kpp": "CVT",
        "engine": "2.0",
        "vin": null,
        "color": "KAD  серый",
        "class": null,
        "year": 2020,
        "price": null,
        "discount_distribute": null,
        "discount_trade-in": null,
        "discount_loyalty": null,
        "price_special": null,
        "benefit": null
    },
    "28":
    {
        "dns": null,
        "priority": null,
        "model": "QASHQAI MC 2.0",
        "compl": "4WD CVT SE MY20 new",
        "kpp": "CVT",
        "engine": "2.0",
        "vin": null,
        "color": "NAH - красный",
        "class": null,
        "year": 2020,
        "price": null,
        "discount_distribute": null,
        "discount_trade-in": null,
        "discount_loyalty": null,
        "price_special": null,
        "benefit": null
    },
    "29":
    {
        "dns": null,
        "priority": null,
        "model": "QASHQAI MC 2.0",
        "compl": "4WD CVT SE MY20 new",
        "kpp": "CVT",
        "engine": "2.0",
        "vin": null,
        "color": "QAB - белый перламутр",
        "class": null,
        "year": 2020,
        "price": null,
        "discount_distribute": null,
        "discount_trade-in": null,
        "discount_loyalty": null,
        "price_special": null,
        "benefit": null
    },
    "30":
    {
        "dns": null,
        "priority": null,
        "model": "QASHQAI MC 2.0",
        "compl": "4WD CVT SE MY20 new",
        "kpp": "CVT",
        "engine": "2.0",
        "vin": null,
        "color": "QAB - белый перламутр",
        "class": null,
        "year": 2020,
        "price": null,
        "discount_distribute": null,
        "discount_trade-in": null,
        "discount_loyalty": null,
        "price_special": null,
        "benefit": null
    },
    "31":
    {
        "dns": null,
        "priority": null,
        "model": "QASHQAI MC 2.0",
        "compl": "4WD CVT SE TOP MY20 new",
        "kpp": "CVT",
        "engine": "2.0",
        "vin": null,
        "color": "KAD - серый ",
        "class": null,
        "year": 2020,
        "price": null,
        "discount_distribute": null,
        "discount_trade-in": null,
        "discount_loyalty": null,
        "price_special": null,
        "benefit": null
    },
    "32":
    {
        "dns": null,
        "priority": null,
        "model": "QASHQAI MC 2.0",
        "compl": "4WD CVT SE+ MY20 new",
        "kpp": "CVT",
        "engine": "2.0",
        "vin": null,
        "color": "KAD - серый ",
        "class": null,
        "year": 2020,
        "price": null,
        "discount_distribute": null,
        "discount_trade-in": null,
        "discount_loyalty": null,
        "price_special": null,
        "benefit": null
    },
    "33":
    {
        "dns": null,
        "priority": null,
        "model": "QASHQAI MC 2.0",
        "compl": "4WD CVT SE+ MY20 new",
        "kpp": "CVT",
        "engine": "2.0",
        "vin": null,
        "color": "QAB  белый перламутр ",
        "class": null,
        "year": 2020,
        "price": null,
        "discount_distribute": null,
        "discount_trade-in": null,
        "discount_loyalty": null,
        "price_special": null,
        "benefit": null
    },
    "34":
    {
        "dns": null,
        "priority": null,
        "model": "TERRANO 2.0",
        "compl": "4WD 6MT Elegance Plus MY20",
        "kpp": "MT",
        "engine": "2.0",
        "vin": null,
        "color": "ZY2 - белый",
        "class": null,
        "year": 2020,
        "price": null,
        "discount_distribute": null,
        "discount_trade-in": null,
        "discount_loyalty": null,
        "price_special": null,
        "benefit": null 
    },
    "35":
    {
        "dns": null,
        "priority": null,
        "model": "TERRANO 2.0",
        "compl": "4WD AT Elegance Plus MY20",
        "kpp": "AT",
        "engine": "2.0",
        "vin": null,
        "color": "D17 - Коричневый",
        "class": null,
        "year": 2020,
        "price": null,
        "discount_distribute": null,
        "discount_trade-in": null,
        "discount_loyalty": null,
        "price_special": null,
        "benefit": null 
    },
    "36":
    {
        "dns": null,
        "priority": null,
        "model": "TERRANO 2.0",
        "compl": "4WD AT Elegance Plus MY20",
        "kpp": "AT",
        "engine": "2.0",
        "vin": null,
        "color": "KAD - серый",
        "class": null,
        "year": 2020,
        "price": null,
        "discount_distribute": null,
        "discount_trade-in": null,
        "discount_loyalty": null,
        "price_special": null,
        "benefit": null 
    },
    "37":
    {
        "dns": null,
        "priority": null,
        "model": "TERRANO 2.0",
        "compl": "4WD AT Elegance Plus MY20",
        "kpp": "AT",
        "engine": "2.0",
        "vin": null,
        "color": "ZBD - серебристый",
        "class": null,
        "year": 2020,
        "price": null,
        "discount_distribute": null,
        "discount_trade-in": null,
        "discount_loyalty": null,
        "price_special": null,
        "benefit": null 
    },
    "38":
    {
        "dns": null,
        "priority": null,
        "model": "X-TRAIL MC 2.0",
        "compl": "2WD CVT SE MY20 new",
        "kpp": "CVT",
        "engine": "2.0",
        "vin": null,
        "color": "EAN- оливковый",
        "class": null,
        "year": 2020,
        "price": null,
        "discount_distribute": null,
        "discount_trade-in": null,
        "discount_loyalty": null,
        "price_special": null,
        "benefit": null  
    },
    "39":
    {
        "dns": null,
        "priority": null,
        "model": "X-TRAIL MC 2.0",
        "compl": "2WD CVT SE MY20 new",
        "kpp": "CVT",
        "engine": "2.0",
        "vin": null,
        "color": "G41 - черный",
        "class": null,
        "year": 2020,
        "price": null,
        "discount_distribute": null,
        "discount_trade-in": null,
        "discount_loyalty": null,
        "price_special": null,
        "benefit": null 
    },
    "40":
    {
        "dns": null,
        "priority": null,
        "model": "X-TRAIL MC 2.0",
        "compl": "2WD CVT SE MY20 new",
        "kpp": "CVT",
        "engine": "2.0",
        "vin": null,
        "color": "G41 - черный",
        "class": null,
        "year": 2020,
        "price": null,
        "discount_distribute": null,
        "discount_trade-in": null,
        "discount_loyalty": null,
        "price_special": null,
        "benefit": null 
    },
    "41":
    {
        "dns": null,
        "priority": null,
        "model": "X-TRAIL MC 2.0",
        "compl": "2WD CVT SE MY20 new",
        "kpp": "CVT",
        "engine": "2.0",
        "vin": null,
        "color": "G41 - черный",
        "class": null,
        "year": 2020,
        "price": null,
        "discount_distribute": null,
        "discount_trade-in": null,
        "discount_loyalty": null,
        "price_special": null,
        "benefit": null 
    },
    "42":
    {
        "dns": null,
        "priority": null,
        "model": "X-TRAIL MC 2.0",
        "compl": "2WD CVT SE MY20 new",
        "kpp": "CVT",
        "engine": "2.0",
        "vin": null,
        "color": "K23  серебристый",
        "class": null,
        "year": 2020,
        "price": null,
        "discount_distribute": null,
        "discount_trade-in": null,
        "discount_loyalty": null,
        "price_special": null,
        "benefit": null 
    },
    "43":
    {
        "dns": null,
        "priority": null,
        "model": "X-TRAIL MC 2.0",
        "compl": "2WD CVT SE MY20 new",
        "kpp": "CVT",
        "engine": "2.0",
        "vin": null,
        "color": "KAD - серый",
        "class": null,
        "year": 2020,
        "price": null,
        "discount_distribute": null,
        "discount_trade-in": null,
        "discount_loyalty": null,
        "price_special": null,
        "benefit": null 
    },
    "44":
    {
        "dns": null,
        "priority": null,
        "model": "X-TRAIL MC 2.0",
        "compl": "2WD CVT SE MY20 new",
        "kpp": "CVT",
        "engine": "2.0",
        "vin": null,
        "color": "KAD - серый",
        "class": null,
        "year": 2020,
        "price": null,
        "discount_distribute": null,
        "discount_trade-in": null,
        "discount_loyalty": null,
        "price_special": null,
        "benefit": null 
    },
    "45":
    {
        "dns": null,
        "priority": null,
        "model": "X-TRAIL MC 2.0",
        "compl": "2WD CVT SE YANDEX MY20 new",
        "kpp": "CVT",
        "engine": "2.0",
        "vin": null,
        "color": "QAB - белый перламутр ",
        "class": null,
        "year": 2020,
        "price": null,
        "discount_distribute": null,
        "discount_trade-in": null,
        "discount_loyalty": null,
        "price_special": null,
        "benefit": null 
    },
    "46":
    {
        "dns": null,
        "priority": null,
        "model": "X-TRAIL MC 2.0",
        "compl": "2WD CVT SE YANDEX MY20 new",
        "kpp": "CVT",
        "engine": "2.0",
        "vin": null,
        "color": "RAQ - серо-синий",
        "class": null,
        "year": 2020,
        "price": null,
        "discount_distribute": null,
        "discount_trade-in": null,
        "discount_loyalty": null,
        "price_special": null,
        "benefit": null 
    },
    "47":
    {
        "dns": null,
        "priority": null,
        "model": "X-TRAIL MC 2.0",
        "compl": "4WD CVT LE COFFEE MY20 new",
        "kpp": "CVT",
        "engine": "2.0",
        "vin": null,
        "color": "G41 - черный",
        "class": null,
        "year": 2020,
        "price": null,
        "discount_distribute": null,
        "discount_trade-in": null,
        "discount_loyalty": null,
        "price_special": null,
        "benefit": null 
    },
    "48":
    {
        "dns": null,
        "priority": null,
        "model": "X-TRAIL MC 2.0",
        "compl": "4WD CVT LE new",
        "kpp": "CVT",
        "engine": "2.0",
        "vin": null,
        "color": "K23 - серебристый",
        "class": null,
        "year": 2020,
        "price": null,
        "discount_distribute": null,
        "discount_trade-in": null,
        "discount_loyalty": null,
        "price_special": null,
        "benefit": null 
    },
    "49":
    {
        "dns": null,
        "priority": null,
        "model": "X-TRAIL MC 2.0",
        "compl": "4WD CVT LE TOP COFFEE MY20",
        "kpp": "CVT",
        "engine": "2.0",
        "vin": null,
        "color": "G41 - черный",
        "class": null,
        "year": 2020,
        "price": null,
        "discount_distribute": null,
        "discount_trade-in": null,
        "discount_loyalty": null,
        "price_special": null,
        "benefit": null
    },
    "50":
    {
        "dns": null,
        "priority": null,
        "model": "X-TRAIL MC 2.0",
        "compl": "4WD CVT LE TOP MY20 new",
        "kpp": "CVT",
        "engine": "2.0",
        "vin": null,
        "color": "EAN - оливковый",
        "class": null,
        "year": 2020,
        "price": null,
        "discount_distribute": null,
        "discount_trade-in": null,
        "discount_loyalty": null,
        "price_special": null,
        "benefit": null 
    },
    "51":
    {
        "dns": null,
        "priority": null,
        "model": "X-TRAIL MC 2.0",
        "compl": "4WD CVT LE TOP MY20 new",
        "kpp": "CVT",
        "engine": "2.0",
        "vin": null,
        "color": "KAD - серый",
        "class": null,
        "year": 2020,
        "price": null,
        "discount_distribute": null,
        "discount_trade-in": null,
        "discount_loyalty": null,
        "price_special": null,
        "benefit": null 
    },
    "52":
    {
        "dns": null,
        "priority": null,
        "model": "X-TRAIL MC 2.0",
        "compl": "4WD CVT SE MY20 new",
        "kpp": "CVT",
        "engine": "2.0",
        "vin": null,
        "color": "EAN - оливковый",
        "class": null,
        "year": 2020,
        "price": null,
        "discount_distribute": null,
        "discount_trade-in": null,
        "discount_loyalty": null,
        "price_special": null,
        "benefit": null
    },
    "53":
    {
        "dns": null,
        "priority": null,
        "model": "X-TRAIL MC 2.0",
        "compl": "4WD CVT SE MY20 new",
        "kpp": "CVT",
        "engine": "2.0",
        "vin": null,
        "color": "QAB - белый перламутр",
        "class": null,
        "year": 2020,
        "price": null,
        "discount_distribute": null,
        "discount_trade-in": null,
        "discount_loyalty": null,
        "price_special": null,
        "benefit": null
    },
    "54":
    {
        "dns": null,
        "priority": null,
        "model": "X-TRAIL MC 2.0",
        "compl": "4WD CVT SE MY20 new",
        "kpp": "CVT",
        "engine": "2.0",
        "vin": null,
        "color": "QAB - белый перламутр",
        "class": null,
        "year": 2020,
        "price": null,
        "discount_distribute": null,
        "discount_trade-in": null,
        "discount_loyalty": null,
        "price_special": null,
        "benefit": null
    },
    "55":
    {
        "dns": null,
        "priority": null,
        "model": "X-TRAIL MC 2.0",
        "compl": "4WD CVT SE MY20 new",
        "kpp": "CVT",
        "engine": "2.0",
        "vin": null,
        "color": "RAQ  серо-синий",
        "class": null,
        "year": 2020,
        "price": null,
        "discount_distribute": null,
        "discount_trade-in": null,
        "discount_loyalty": null,
        "price_special": null,
        "benefit": null
    },
    "56":
    {
        "dns": null,
        "priority": null,
        "model": "X-TRAIL MC 2.0",
        "compl": "4WD CVT SE TOP MY20 new",
        "kpp": "CVT",
        "engine": "2.0",
        "vin": null,
        "color": "KAD - серый",
        "class": null,
        "year": 2020,
        "price": null,
        "discount_distribute": null,
        "discount_trade-in": null,
        "discount_loyalty": null,
        "price_special": null,
        "benefit": null
    },
    "57":
    {
        "dns": null,
        "priority": null,
        "model": "X-TRAIL MC 2.0",
        "compl": "4WD CVT SE TOP MY20 new",
        "kpp": "CVT",
        "engine": "2.0",
        "vin": null,
        "color": "RAQ - серо-синий",
        "class": null,
        "year": 2020,
        "price": null,
        "discount_distribute": null,
        "discount_trade-in": null,
        "discount_loyalty": null,
        "price_special": null,
        "benefit": null
    },
    "58":
    {
        "dns": null,
        "priority": null,
        "model": "X-TRAIL MC 2.0",
        "compl": "4WD CVT LE TOP COFFEE",
        "kpp": "CVT",
        "engine": "2.0",
        "vin": null,
        "color": "G41 - черный",
        "class": null,
        "year": 2020,
        "price": null,
        "discount_distribute": null,
        "discount_trade-in": null,
        "discount_loyalty": null,
        "price_special": null,
        "benefit": null
    },
    "59":
    {
        "dns": null,
        "priority": null,
        "model": "X-TRAIL MC 2.0",
        "compl": "4WD CVT LE TOP COFFEE",
        "kpp": "CVT",
        "engine": "2.0",
        "vin": null,
        "color": "RAQ - серо-синий",
        "class": null,
        "year": 2020,
        "price": null,
        "discount_distribute": null,
        "discount_trade-in": null,
        "discount_loyalty": null,
        "price_special": null,
        "benefit": null
    },
    "60":
    {
        "dns": null,
        "priority": null,
        "model": "X-TRAIL MC 2.0",
        "compl": "4WD CVT LE TOP MY20 new",
        "kpp": "CVT",
        "engine": "2.0",
        "vin": null,
        "color": "QAB - белый перламутр",
        "class": null,
        "year": 2020,
        "price": null,
        "discount_distribute": null,
        "discount_trade-in": null,
        "discount_loyalty": null,
        "price_special": null,
        "benefit": null 
    },
    "61":
    {
        "dns": null,
        "priority": null,
        "model": "X-TRAIL MC 2.0",
        "compl": "4WD CVT LE TOP MY20 new",
        "kpp": "CVT",
        "engine": "2.0",
        "vin": null,
        "color": "KAD - серый ",
        "class": null,
        "year": 2020,
        "price": null,
        "discount_distribute": null,
        "discount_trade-in": null,
        "discount_loyalty": null,
        "price_special": null,
        "benefit": null 
    },
    "62":
    {
        "dns": null,
        "priority": null,
        "model": "X-TRAIL MC 2.0",
        "compl": "4WD CVT LE TOP MY20 new",
        "kpp": "CVT",
        "engine": "2.0",
        "vin": null,
        "color": "QAB - белый перламутр ",
        "class": null,
        "year": 2020,
        "price": null,
        "discount_distribute": null,
        "discount_trade-in": null,
        "discount_loyalty": null,
        "price_special": null,
        "benefit": null 
    }
}