{
    "20":
    {
        "dns": null,
        "priority": null,
        "model": "QASHQAI MC 1.2",
        "compl": "2WD 6M/T SE MY20",
        "kpp": "M/T",
        "engine": "1.2 ",
        "vin": null,
        "color": "RBN - синий ",
        "class": null,
        "year": 2020,
        "price": null,
        "discount_distribute": null,
        "discount_trade-in": null,
        "discount_loyalty": null,
        "price_special": null,
        "benefit": null
    },
    "21":
    {
        "dns": null,
        "priority": null,
        "model": "QASHQAI MC 1.2",
        "compl": "2WD CVT SE MY20",
        "kpp": "CVT",
        "engine": "1.2 ",
        "vin": null,
        "color": "KAD - серый ",
        "class": null,
        "year": 2020,
        "price": null,
        "discount_distribute": null,
        "discount_trade-in": null,
        "discount_loyalty": null,
        "price_special": null,
        "benefit": null
    },
    "22":
    {
        "dns": null,
        "priority": null,
        "model": "QASHQAI MC 2.0",
        "compl": "2WD 6M/T SE MY20",
        "kpp": "M/T",
        "engine": "2.0",
        "vin": null,
        "color": "G41- черный",
        "class": null,
        "year": 2020,
        "price": null,
        "discount_distribute": null,
        "discount_trade-in": null,
        "discount_loyalty": null,
        "price_special": null,
        "benefit": null
    },
    "23":
    {
        "dns": null,
        "priority": null,
        "model": "QASHQAI MC 2.0",
        "compl": "2WD 6M/T SE MY20",
        "kpp": "M/T",
        "engine": "2.0",
        "vin": null,
        "color": "QAB - белый перламутр ",
        "class": null,
        "year": 2020,
        "price": null,
        "discount_distribute": null,
        "discount_trade-in": null,
        "discount_loyalty": null,
        "price_special": null,
        "benefit": null
    },
    "24":
    {
        "dns": null,
        "priority": null,
        "model": "QASHQAI MC 2.0",
        "compl": "2WD 6M/T XE MY20",
        "kpp": "M/T",
        "engine": "2.0",
        "vin": null,
        "color": "G41- черный",
        "class": null,
        "year": 2020,
        "price": null,
        "discount_distribute": null,
        "discount_trade-in": null,
        "discount_loyalty": null,
        "price_special": null,
        "benefit": null
    },
    "25":
    {
        "dns": null,
        "priority": null,
        "model": "QASHQAI MC 2.0",
        "compl": "2WD 6M/T XE MY20",
        "kpp": "M/T",
        "engine": "2.0",
        "vin": null,
        "color": "G41- черный",
        "class": null,
        "year": 2020,
        "price": null,
        "discount_distribute": null,
        "discount_trade-in": null,
        "discount_loyalty": null,
        "price_special": null,
        "benefit": null
    },
    "26":
    {
        "dns": null,
        "priority": null,
        "model": "QASHQAI MC 2.0",
        "compl": "2WD CVT LE MY20",
        "kpp": "CVT",
        "engine": "2.0",
        "vin": null,
        "color": "NAH - красный ",
        "class": null,
        "year": 2020,
        "price": null,
        "discount_distribute": null,
        "discount_trade-in": null,
        "discount_loyalty": null,
        "price_special": null,
        "benefit": null
    },
    "27":
    {
        "dns": null,
        "priority": null,
        "model": "QASHQAI MC 2.0",
        "compl": "2WD CVT LE MY20",
        "kpp": "CVT",
        "engine": "2.0",
        "vin": null,
        "color": "QAB - белый перламутр ",
        "class": null,
        "year": 2020,
        "price": null,
        "discount_distribute": null,
        "discount_trade-in": null,
        "discount_loyalty": null,
        "price_special": null,
        "benefit": null
    },
    "28":
    {
        "dns": null,
        "priority": null,
        "model": "QASHQAI MC 2.0",
        "compl": "2WD CVT LE MY20",
        "kpp": "CVT",
        "engine": "2.0",
        "vin": null,
        "color": "RBN - синий ",
        "class": null,
        "year": 2020,
        "price": null,
        "discount_distribute": null,
        "discount_trade-in": null,
        "discount_loyalty": null,
        "price_special": null,
        "benefit": null
    },
    "29":
    {
        "dns": null,
        "priority": null,
        "model": "QASHQAI MC 2.0",
        "compl": "2WD CVT LE Top",
        "kpp": "CVT",
        "engine": "2.0",
        "vin": null,
        "color": "G41- черный",
        "class": null,
        "year": 2019,
        "price": null,
        "discount_distribute": null,
        "discount_trade-in": null,
        "discount_loyalty": null,
        "price_special": null,
        "benefit": null
    },
    "30":
    {
        "dns": null,
        "priority": null,
        "model": "QASHQAI MC 2.0",
        "compl": "2WD CVT LE Top",
        "kpp": "CVT",
        "engine": "2.0",
        "vin": null,
        "color": "KAD - серый ",
        "class": null,
        "year": 2019,
        "price": null,
        "discount_distribute": null,
        "discount_trade-in": null,
        "discount_loyalty": null,
        "price_special": null,
        "benefit": null
    },
    "31":
    {
        "dns": null,
        "priority": null,
        "model": "QASHQAI MC 2.0",
        "compl": "2WD CVT LE Top",
        "kpp": "CVT",
        "engine": "2.0",
        "vin": null,
        "color": "RCA- голубой",
        "class": null,
        "year": 2019,
        "price": null,
        "discount_distribute": null,
        "discount_trade-in": null,
        "discount_loyalty": null,
        "price_special": null,
        "benefit": null
    },
    "32":
    {
        "dns": null,
        "priority": null,
        "model": "QASHQAI MC 2.0",
        "compl": "2WD CVT LE Top MY20",
        "kpp": "CVT",
        "engine": "2.0",
        "vin": null,
        "color": "RBN - синий ",
        "class": null,
        "year": 2020,
        "price": null,
        "discount_distribute": null,
        "discount_trade-in": null,
        "discount_loyalty": null,
        "price_special": null,
        "benefit": null
    },
    "33":
    {
        "dns": null,
        "priority": null,
        "model": "QASHQAI MC 2.0",
        "compl": "2WD CVT LE+",
        "kpp": "CVT",
        "engine": "2.0",
        "vin": null,
        "color": "RCA- голубой",
        "class": null,
        "year": 2019,
        "price": null,
        "discount_distribute": null,
        "discount_trade-in": null,
        "discount_loyalty": null,
        "price_special": null,
        "benefit": null
    },
    "34":
    {
        "dns": null,
        "priority": null,
        "model": "QASHQAI MC 2.0",
        "compl": "2WD CVT QE + MY20",
        "kpp": "CVT",
        "engine": "2.0",
        "vin": null,
        "color": "G41- черный",
        "class": null,
        "year": 2020,
        "price": null,
        "discount_distribute": null,
        "discount_trade-in": null,
        "discount_loyalty": null,
        "price_special": null,
        "benefit": null
    },
    "35":
    {
        "dns": null,
        "priority": null,
        "model": "QASHQAI MC 2.0",
        "compl": "2WD CVT QE + MY20",
        "kpp": "CVT",
        "engine": "2.0",
        "vin": null,
        "color": "K23 - серебристый ",
        "class": null,
        "year": 2020,
        "price": null,
        "discount_distribute": null,
        "discount_trade-in": null,
        "discount_loyalty": null,
        "price_special": null,
        "benefit": null
    },
    "36":
    {
        "dns": null,
        "priority": null,
        "model": "QASHQAI MC 2.0",
        "compl": "2WD CVT QE + MY20",
        "kpp": "CVT",
        "engine": "2.0",
        "vin": null,
        "color": "KAD - серый ",
        "class": null,
        "year": 2020,
        "price": null,
        "discount_distribute": null,
        "discount_trade-in": null,
        "discount_loyalty": null,
        "price_special": null,
        "benefit": null
    },
    "37":
    {
        "dns": null,
        "priority": null,
        "model": "QASHQAI MC 2.0",
        "compl": "2WD CVT QE + MY20",
        "kpp": "CVT",
        "engine": "2.0",
        "vin": null,
        "color": "KAD - серый ",
        "class": null,
        "year": 2020,
        "price": null,
        "discount_distribute": null,
        "discount_trade-in": null,
        "discount_loyalty": null,
        "price_special": null,
        "benefit": null
    },
    "38":
    {
        "dns": null,
        "priority": null,
        "model": "QASHQAI MC 2.0",
        "compl": "2WD CVT QE + MY20",
        "kpp": "CVT",
        "engine": "2.0",
        "vin": null,
        "color": "QAB - белый перламутр ",
        "class": null,
        "year": 2020,
        "price": null,
        "discount_distribute": null,
        "discount_trade-in": null,
        "discount_loyalty": null,
        "price_special": null,
        "benefit": null
    },
    "39":
    {
        "dns": null,
        "priority": null,
        "model": "QASHQAI MC 2.0",
        "compl": "2WD CVT QE + MY20",
        "kpp": "CVT",
        "engine": "2.0",
        "vin": null,
        "color": "RBN - синий ",
        "class": null,
        "year": 2020,
        "price": null,
        "discount_distribute": null,
        "discount_trade-in": null,
        "discount_loyalty": null,
        "price_special": null,
        "benefit": null
    },
    "40":
    {
        "dns": null,
        "priority": null,
        "model": "QASHQAI MC 2.0",
        "compl": "2WD CVT QE MY20",
        "kpp": "CVT",
        "engine": "2.0",
        "vin": null,
        "color": "G41- черный",
        "class": null,
        "year": 2020,
        "price": null,
        "discount_distribute": null,
        "discount_trade-in": null,
        "discount_loyalty": null,
        "price_special": null,
        "benefit": null
    },
    "41":
    {
        "dns": null,
        "priority": null,
        "model": "QASHQAI MC 2.0",
        "compl": "2WD CVT QE MY20",
        "kpp": "CVT",
        "engine": "2.0",
        "vin": null,
        "color": "KAD - серый ",
        "class": null,
        "year": 2020,
        "price": null,
        "discount_distribute": null,
        "discount_trade-in": null,
        "discount_loyalty": null,
        "price_special": null,
        "benefit": null
    },
    "42":
    {
        "dns": null,
        "priority": null,
        "model": "QASHQAI MC 2.0",
        "compl": "2WD CVT QE MY20",
        "kpp": "CVT",
        "engine": "2.0",
        "vin": null,
        "color": "QAB - белый перламутр ",
        "class": null,
        "year": 2020,
        "price": null,
        "discount_distribute": null,
        "discount_trade-in": null,
        "discount_loyalty": null,
        "price_special": null,
        "benefit": null
    },
    "43":
    {
        "dns": null,
        "priority": null,
        "model": "QASHQAI MC 2.0",
        "compl": "2WD CVT QE Yandex MY20",
        "kpp": "CVT",
        "engine": "2.0",
        "vin": null,
        "color": "G41- черный",
        "class": null,
        "year": 2020,
        "price": null,
        "discount_distribute": null,
        "discount_trade-in": null,
        "discount_loyalty": null,
        "price_special": null,
        "benefit": null
    },
    "44":
    {
        "dns": null,
        "priority": null,
        "model": "QASHQAI MC 2.0",
        "compl": "2WD CVT QE Yandex MY20",
        "kpp": "CVT",
        "engine": "2.0",
        "vin": null,
        "color": "NAH - красный ",
        "class": null,
        "year": 2020,
        "price": null,
        "discount_distribute": null,
        "discount_trade-in": null,
        "discount_loyalty": null,
        "price_special": null,
        "benefit": null
    },
    "45":
    {
        "dns": null,
        "priority": null,
        "model": "QASHQAI MC 2.0",
        "compl": "2WD CVT SE",
        "kpp": "CVT",
        "engine": "2.0",
        "vin": null,
        "color": "G41- черный",
        "class": null,
        "year": 2019,
        "price": null,
        "discount_distribute": null,
        "discount_trade-in": null,
        "discount_loyalty": null,
        "price_special": null,
        "benefit": null
    },
    "46":
    {
        "dns": null,
        "priority": null,
        "model": "QASHQAI MC 2.0",
        "compl": "2WD CVT SE MY20",
        "kpp": "CVT",
        "engine": "2.0",
        "vin": null,
        "color": "NAH - красный ",
        "class": null,
        "year": 2020,
        "price": null,
        "discount_distribute": null,
        "discount_trade-in": null,
        "discount_loyalty": null,
        "price_special": null,
        "benefit": null
    },
    "47":
    {
        "dns": null,
        "priority": null,
        "model": "QASHQAI MC 2.0",
        "compl": "2WD CVT SE MY20",
        "kpp": "CVT",
        "engine": "2.0",
        "vin": null,
        "color": "NAH - красный ",
        "class": null,
        "year": 2020,
        "price": null,
        "discount_distribute": null,
        "discount_trade-in": null,
        "discount_loyalty": null,
        "price_special": null,
        "benefit": null
    },
    "48":
    {
        "dns": null,
        "priority": null,
        "model": "QASHQAI MC 2.0",
        "compl": "2WD CVT SE Yandex MY20",
        "kpp": "CVT",
        "engine": "2.0",
        "vin": null,
        "color": "K23 - серебристый ",
        "class": null,
        "year": 2020,
        "price": null,
        "discount_distribute": null,
        "discount_trade-in": null,
        "discount_loyalty": null,
        "price_special": null,
        "benefit": null
    },
    "49":
    {
        "dns": null,
        "priority": null,
        "model": "QASHQAI MC 2.0",
        "compl": "2WD CVT SE Yandex MY20",
        "kpp": "CVT",
        "engine": "2.0",
        "vin": null,
        "color": "RCA- голубой",
        "class": null,
        "year": 2020,
        "price": null,
        "discount_distribute": null,
        "discount_trade-in": null,
        "discount_loyalty": null,
        "price_special": null,
        "benefit": null
    },
    "50":
    {
        "dns": null,
        "priority": null,
        "model": "QASHQAI MC 2.0",
        "compl": "2WD CVT XE MY20",
        "kpp": "CVT",
        "engine": "2.0",
        "vin": null,
        "color": "G41- черный",
        "class": null,
        "year": 2020,
        "price": null,
        "discount_distribute": null,
        "discount_trade-in": null,
        "discount_loyalty": null,
        "price_special": null,
        "benefit": null
    },
    "51":
    {
        "dns": null,
        "priority": null,
        "model": "QASHQAI MC 2.0",
        "compl": "2WD CVT XE MY20",
        "kpp": "CVT",
        "engine": "2.0",
        "vin": null,
        "color": "KAD - серый ",
        "class": null,
        "year": 2020,
        "price": null,
        "discount_distribute": null,
        "discount_trade-in": null,
        "discount_loyalty": null,
        "price_special": null,
        "benefit": null
    },
    "52":
    {
        "dns": null,
        "priority": null,
        "model": "QASHQAI MC 2.0",
        "compl": "2WD CVT XE MY20",
        "kpp": "CVT",
        "engine": "2.0",
        "vin": null,
        "color": "NAH - красный ",
        "class": null,
        "year": 2020,
        "price": null,
        "discount_distribute": null,
        "discount_trade-in": null,
        "discount_loyalty": null,
        "price_special": null,
        "benefit": null
    },
    "53":
    {
        "dns": null,
        "priority": null,
        "model": "QASHQAI MC 2.0",
        "compl": "2WD CVT XE MY20",
        "kpp": "CVT",
        "engine": "2.0",
        "vin": null,
        "color": "QAB - белый перламутр ",
        "class": null,
        "year": 2020,
        "price": null,
        "discount_distribute": null,
        "discount_trade-in": null,
        "discount_loyalty": null,
        "price_special": null,
        "benefit": null
    },
    "54":
    {
        "dns": null,
        "priority": null,
        "model": "QASHQAI MC 2.0",
        "compl": "2WD CVT XE MY20",
        "kpp": "CVT",
        "engine": "2.0",
        "vin": null,
        "color": "RBN - синий ",
        "class": null,
        "year": 2020,
        "price": null,
        "discount_distribute": null,
        "discount_trade-in": null,
        "discount_loyalty": null,
        "price_special": null,
        "benefit": null
    },
    "55":
    {
        "dns": null,
        "priority": null,
        "model": "QASHQAI MC 2.0",
        "compl": "2WD CVT XE MY20",
        "kpp": "CVT",
        "engine": "2.0",
        "vin": null,
        "color": "RCA- голубой",
        "class": null,
        "year": 2020,
        "price": null,
        "discount_distribute": null,
        "discount_trade-in": null,
        "discount_loyalty": null,
        "price_special": null,
        "benefit": null
    },
    "56":
    {
        "dns": null,
        "priority": null,
        "model": "QASHQAI MC 2.0",
        "compl": "4WD CVT LE MY20",
        "kpp": "CVT",
        "engine": "2.0",
        "vin": null,
        "color": "KAD - серый ",
        "class": null,
        "year": 2020,
        "price": null,
        "discount_distribute": null,
        "discount_trade-in": null,
        "discount_loyalty": null,
        "price_special": null,
        "benefit": null
    },
    "57":
    {
        "dns": null,
        "priority": null,
        "model": "QASHQAI MC 2.0",
        "compl": "4WD CVT LE MY20",
        "kpp": "CVT",
        "engine": "2.0",
        "vin": null,
        "color": "NAH - красный ",
        "class": null,
        "year": 2020,
        "price": null,
        "discount_distribute": null,
        "discount_trade-in": null,
        "discount_loyalty": null,
        "price_special": null,
        "benefit": null
    },
    "58":
    {
        "dns": null,
        "priority": null,
        "model": "QASHQAI MC 2.0",
        "compl": "4WD CVT LE Top",
        "kpp": "CVT",
        "engine": "2.0",
        "vin": null,
        "color": "G41- черный",
        "class": null,
        "year": 2019,
        "price": null,
        "discount_distribute": null,
        "discount_trade-in": null,
        "discount_loyalty": null,
        "price_special": null,
        "benefit": null
    },
    "59":
    {
        "dns": null,
        "priority": null,
        "model": "QASHQAI MC 2.0",
        "compl": "4WD CVT LE Top",
        "kpp": "CVT",
        "engine": "2.0",
        "vin": null,
        "color": "G41- черный",
        "class": null,
        "year": 2019,
        "price": null,
        "discount_distribute": null,
        "discount_trade-in": null,
        "discount_loyalty": null,
        "price_special": null,
        "benefit": null
    },
    "60":
    {
        "dns": null,
        "priority": null,
        "model": "QASHQAI MC 2.0",
        "compl": "4WD CVT LE Top",
        "kpp": "CVT",
        "engine": "2.0",
        "vin": null,
        "color": "G41- черный",
        "class": null,
        "year": 2019,
        "price": null,
        "discount_distribute": null,
        "discount_trade-in": null,
        "discount_loyalty": null,
        "price_special": null,
        "benefit": null
    },
    "61":
    {
        "dns": null,
        "priority": null,
        "model": "QASHQAI MC 2.0",
        "compl": "4WD CVT LE Top",
        "kpp": "CVT",
        "engine": "2.0",
        "vin": null,
        "color": "G41- черный",
        "class": null,
        "year": 2019,
        "price": null,
        "discount_distribute": null,
        "discount_trade-in": null,
        "discount_loyalty": null,
        "price_special": null,
        "benefit": null
    },
    "62":
    {
        "dns": null,
        "priority": null,
        "model": "QASHQAI MC 2.0",
        "compl": "4WD CVT LE Top",
        "kpp": "CVT",
        "engine": "2.0",
        "vin": null,
        "color": "K23 - серебристый ",
        "class": null,
        "year": 2019,
        "price": null,
        "discount_distribute": null,
        "discount_trade-in": null,
        "discount_loyalty": null,
        "price_special": null,
        "benefit": null
    },
    "63":
    {
        "dns": null,
        "priority": null,
        "model": "QASHQAI MC 2.0",
        "compl": "4WD CVT LE Top",
        "kpp": "CVT",
        "engine": "2.0",
        "vin": null,
        "color": "KAD - серый ",
        "class": null,
        "year": 2019,
        "price": null,
        "discount_distribute": null,
        "discount_trade-in": null,
        "discount_loyalty": null,
        "price_special": null,
        "benefit": null
    },
    "64":
    {
        "dns": null,
        "priority": null,
        "model": "QASHQAI MC 2.0",
        "compl": "4WD CVT LE Top",
        "kpp": "CVT",
        "engine": "2.0",
        "vin": null,
        "color": "RCA- голубой",
        "class": null,
        "year": 2019,
        "price": null,
        "discount_distribute": null,
        "discount_trade-in": null,
        "discount_loyalty": null,
        "price_special": null,
        "benefit": null
    },
    "65":
    {
        "dns": null,
        "priority": null,
        "model": "QASHQAI MC 2.0",
        "compl": "4WD CVT LE Top",
        "kpp": "CVT",
        "engine": "2.0",
        "vin": null,
        "color": "RCA- голубой",
        "class": null,
        "year": 2019,
        "price": null,
        "discount_distribute": null,
        "discount_trade-in": null,
        "discount_loyalty": null,
        "price_special": null,
        "benefit": null
    },
    "66":
    {
        "dns": null,
        "priority": null,
        "model": "QASHQAI MC 2.0",
        "compl": "4WD CVT LE Top",
        "kpp": "CVT",
        "engine": "2.0",
        "vin": null,
        "color": "RCA- голубой",
        "class": null,
        "year": 2019,
        "price": null,
        "discount_distribute": null,
        "discount_trade-in": null,
        "discount_loyalty": null,
        "price_special": null,
        "benefit": null
    },
    "67":
    {
        "dns": null,
        "priority": null,
        "model": "QASHQAI MC 2.0",
        "compl": "4WD CVT LE Top MY20",
        "kpp": "CVT",
        "engine": "2.0",
        "vin": null,
        "color": "G41- черный",
        "class": null,
        "year": 2020,
        "price": null,
        "discount_distribute": null,
        "discount_trade-in": null,
        "discount_loyalty": null,
        "price_special": null,
        "benefit": null
    },
    "68":
    {
        "dns": null,
        "priority": null,
        "model": "QASHQAI MC 2.0",
        "compl": "4WD CVT LE Top MY20",
        "kpp": "CVT",
        "engine": "2.0",
        "vin": null,
        "color": "KAD - серый ",
        "class": null,
        "year": 2020,
        "price": null,
        "discount_distribute": null,
        "discount_trade-in": null,
        "discount_loyalty": null,
        "price_special": null,
        "benefit": null
    },
    "69":
    {
        "dns": null,
        "priority": null,
        "model": "QASHQAI MC 2.0",
        "compl": "4WD CVT LE Top MY20",
        "kpp": "CVT",
        "engine": "2.0",
        "vin": null,
        "color": "QAB - белый перламутр ",
        "class": null,
        "year": 2020,
        "price": null,
        "discount_distribute": null,
        "discount_trade-in": null,
        "discount_loyalty": null,
        "price_special": null,
        "benefit": null
    },
    "70":
    {
        "dns": null,
        "priority": null,
        "model": "QASHQAI MC 2.0",
        "compl": "4WD CVT LE Top MY20",
        "kpp": "CVT",
        "engine": "2.0",
        "vin": null,
        "color": "QAB - белый перламутр ",
        "class": null,
        "year": 2020,
        "price": null,
        "discount_distribute": null,
        "discount_trade-in": null,
        "discount_loyalty": null,
        "price_special": null,
        "benefit": null
    },
    "71":
    {
        "dns": null,
        "priority": null,
        "model": "QASHQAI MC 2.0",
        "compl": "4WD CVT LE+ MY20",
        "kpp": "CVT",
        "engine": "2.0",
        "vin": null,
        "color": "G41- черный",
        "class": null,
        "year": 2020,
        "price": null,
        "discount_distribute": null,
        "discount_trade-in": null,
        "discount_loyalty": null,
        "price_special": null,
        "benefit": null
    },
    "72":
    {
        "dns": null,
        "priority": null,
        "model": "QASHQAI MC 2.0",
        "compl": "4WD CVT LE+ MY20",
        "kpp": "CVT",
        "engine": "2.0",
        "vin": null,
        "color": "G41- черный",
        "class": null,
        "year": 2020,
        "price": null,
        "discount_distribute": null,
        "discount_trade-in": null,
        "discount_loyalty": null,
        "price_special": null,
        "benefit": null
    },
    "73":
    {
        "dns": null,
        "priority": null,
        "model": "QASHQAI MC 2.0",
        "compl": "4WD CVT LE+ MY20",
        "kpp": "CVT",
        "engine": "2.0",
        "vin": null,
        "color": "K23 - серебристый ",
        "class": null,
        "year": 2020,
        "price": null,
        "discount_distribute": null,
        "discount_trade-in": null,
        "discount_loyalty": null,
        "price_special": null,
        "benefit": null
    },
    "74":
    {
        "dns": null,
        "priority": null,
        "model": "QASHQAI MC 2.0",
        "compl": "4WD CVT LE+ MY20",
        "kpp": "CVT",
        "engine": "2.0",
        "vin": null,
        "color": "RBN - синий ",
        "class": null,
        "year": 2020,
        "price": null,
        "discount_distribute": null,
        "discount_trade-in": null,
        "discount_loyalty": null,
        "price_special": null,
        "benefit": null
    },
    "75":
    {
        "dns": null,
        "priority": null,
        "model": "QASHQAI MC 2.0",
        "compl": "4WD CVT QE Yandex",
        "kpp": "CVT",
        "engine": "2.0",
        "vin": null,
        "color": "RCA- голубой",
        "class": null,
        "year": 2019,
        "price": null,
        "discount_distribute": null,
        "discount_trade-in": null,
        "discount_loyalty": null,
        "price_special": null,
        "benefit": null
    },
    "76":
    {
        "dns": null,
        "priority": null,
        "model": "QASHQAI MC 2.0",
        "compl": "4WD CVT QE Yandex MY20",
        "kpp": "CVT",
        "engine": "2.0",
        "vin": null,
        "color": "G41- черный",
        "class": null,
        "year": 2020,
        "price": null,
        "discount_distribute": null,
        "discount_trade-in": null,
        "discount_loyalty": null,
        "price_special": null,
        "benefit": null
    },
    "77":
    {
        "dns": null,
        "priority": null,
        "model": "QASHQAI MC 2.0",
        "compl": "4WD CVT QE+ MY20",
        "kpp": "CVT",
        "engine": "2.0",
        "vin": null,
        "color": "G41- черный",
        "class": null,
        "year": 2020,
        "price": null,
        "discount_distribute": null,
        "discount_trade-in": null,
        "discount_loyalty": null,
        "price_special": null,
        "benefit": null
    },
    "78":
    {
        "dns": null,
        "priority": null,
        "model": "QASHQAI MC 2.0",
        "compl": "4WD CVT QE+ MY20",
        "kpp": "CVT",
        "engine": "2.0",
        "vin": null,
        "color": "K23 - серебристый ",
        "class": null,
        "year": 2020,
        "price": null,
        "discount_distribute": null,
        "discount_trade-in": null,
        "discount_loyalty": null,
        "price_special": null,
        "benefit": null
    },
    "79":
    {
        "dns": null,
        "priority": null,
        "model": "QASHQAI MC 2.0",
        "compl": "4WD CVT QE+ MY20",
        "kpp": "CVT",
        "engine": "2.0",
        "vin": null,
        "color": "KAD - серый ",
        "class": null,
        "year": 2020,
        "price": null,
        "discount_distribute": null,
        "discount_trade-in": null,
        "discount_loyalty": null,
        "price_special": null,
        "benefit": null
    },
    "80":
    {
        "dns": null,
        "priority": null,
        "model": "QASHQAI MC 2.0",
        "compl": "4WD CVT QE+ MY20",
        "kpp": "CVT",
        "engine": "2.0",
        "vin": null,
        "color": "NAH - красный ",
        "class": null,
        "year": 2020,
        "price": null,
        "discount_distribute": null,
        "discount_trade-in": null,
        "discount_loyalty": null,
        "price_special": null,
        "benefit": null
    },
    "81":
    {
        "dns": null,
        "priority": null,
        "model": "QASHQAI MC 2.0",
        "compl": "4WD CVT QE+ MY20",
        "kpp": "CVT",
        "engine": "2.0",
        "vin": null,
        "color": "QAB - белый перламутр ",
        "class": null,
        "year": 2020,
        "price": null,
        "discount_distribute": null,
        "discount_trade-in": null,
        "discount_loyalty": null,
        "price_special": null,
        "benefit": null
    },
    "82":
    {
        "dns": null,
        "priority": null,
        "model": "QASHQAI MC 2.0",
        "compl": "4WD CVT SE MY20",
        "kpp": "CVT",
        "engine": "2.0",
        "vin": null,
        "color": "G41- черный",
        "class": null,
        "year": 2020,
        "price": null,
        "discount_distribute": null,
        "discount_trade-in": null,
        "discount_loyalty": null,
        "price_special": null,
        "benefit": null
    },
    "83":
    {
        "dns": null,
        "priority": null,
        "model": "QASHQAI MC 2.0",
        "compl": "4WD CVT SE MY20",
        "kpp": "CVT",
        "engine": "2.0",
        "vin": null,
        "color": "K23 - серебристый ",
        "class": null,
        "year": 2020,
        "price": null,
        "discount_distribute": null,
        "discount_trade-in": null,
        "discount_loyalty": null,
        "price_special": null,
        "benefit": null
    },
    "84":
    {
        "dns": null,
        "priority": null,
        "model": "QASHQAI MC 2.0",
        "compl": "4WD CVT SE MY20",
        "kpp": "CVT",
        "engine": "2.0",
        "vin": null,
        "color": "QAB - белый перламутр ",
        "class": null,
        "year": 2020,
        "price": null,
        "discount_distribute": null,
        "discount_trade-in": null,
        "discount_loyalty": null,
        "price_special": null,
        "benefit": null
    },
    "85":
    {
        "dns": null,
        "priority": null,
        "model": "QASHQAI MC 2.0",
        "compl": "4WD CVT SE MY20",
        "kpp": "CVT",
        "engine": "2.0",
        "vin": null,
        "color": "RBN - синий ",
        "class": null,
        "year": 2020,
        "price": null,
        "discount_distribute": null,
        "discount_trade-in": null,
        "discount_loyalty": null,
        "price_special": null,
        "benefit": null
    },
    "86":
    {
        "dns": null,
        "priority": null,
        "model": "QASHQAI MC 2.0",
        "compl": "4WD CVT SE Yandex MY20",
        "kpp": "CVT",
        "engine": "2.0",
        "vin": null,
        "color": "G41- черный",
        "class": null,
        "year": 2020,
        "price": null,
        "discount_distribute": null,
        "discount_trade-in": null,
        "discount_loyalty": null,
        "price_special": null,
        "benefit": null
    },
    "87":
    {
        "dns": null,
        "priority": null,
        "model": "QASHQAI MC 2.0",
        "compl": "4WD CVT SE Yandex MY20",
        "kpp": "CVT",
        "engine": "2.0",
        "vin": null,
        "color": "K23 - серебристый ",
        "class": null,
        "year": 2020,
        "price": null,
        "discount_distribute": null,
        "discount_trade-in": null,
        "discount_loyalty": null,
        "price_special": null,
        "benefit": null
    },
    "88":
    {
        "dns": null,
        "priority": null,
        "model": "QASHQAI MC 2.0",
        "compl": "4WD CVT SE Yandex MY20",
        "kpp": "CVT",
        "engine": "2.0",
        "vin": null,
        "color": "KAD - серый ",
        "class": null,
        "year": 2020,
        "price": null,
        "discount_distribute": null,
        "discount_trade-in": null,
        "discount_loyalty": null,
        "price_special": null,
        "benefit": null
    },
    "89":
    {
        "dns": null,
        "priority": null,
        "model": "QASHQAI MC 2.0",
        "compl": "4WD CVT SE Yandex MY20",
        "kpp": "CVT",
        "engine": "2.0",
        "vin": null,
        "color": "QAB - белый перламутр ",
        "class": null,
        "year": 2020,
        "price": null,
        "discount_distribute": null,
        "discount_trade-in": null,
        "discount_loyalty": null,
        "price_special": null,
        "benefit": null
    },
    "90":
    {
        "dns": null,
        "priority": null,
        "model": "QASHQAI MC 2.0",
        "compl": "4WD CVT SE Yandex MY20",
        "kpp": "CVT",
        "engine": "2.0",
        "vin": null,
        "color": "QAB - белый перламутр ",
        "class": null,
        "year": 2020,
        "price": null,
        "discount_distribute": null,
        "discount_trade-in": null,
        "discount_loyalty": null,
        "price_special": null,
        "benefit": null
    },
    "91":
    {
        "dns": null,
        "priority": null,
        "model": "QASHQAI MC 2.0",
        "compl": "4WD CVT SE Yandex MY20",
        "kpp": "CVT",
        "engine": "2.0",
        "vin": null,
        "color": "QM1- белый",
        "class": null,
        "year": 2020,
        "price": null,
        "discount_distribute": null,
        "discount_trade-in": null,
        "discount_loyalty": null,
        "price_special": null,
        "benefit": null
    },
    "92":
    {
        "dns": null,
        "priority": null,
        "model": "QASHQAI MC 2.0",
        "compl": "4WD CVT SE Yandex MY20",
        "kpp": "CVT",
        "engine": "2.0",
        "vin": null,
        "color": "RCA- голубой",
        "class": null,
        "year": 2020,
        "price": null,
        "discount_distribute": null,
        "discount_trade-in": null,
        "discount_loyalty": null,
        "price_special": null,
        "benefit": null
    },
    "93":
    {
        "dns": null,
        "priority": null,
        "model": "QASHQAI MC 2.0",
        "compl": "4WD CVT SE+ MY20",
        "kpp": "CVT",
        "engine": "2.0",
        "vin": null,
        "color": "KAD - серый ",
        "class": null,
        "year": 2020,
        "price": null,
        "discount_distribute": null,
        "discount_trade-in": null,
        "discount_loyalty": null,
        "price_special": null,
        "benefit": null
    },
    "94":
    {
        "dns": null,
        "priority": null,
        "model": "QASHQAI MC 2.0",
        "compl": "4WD CVT XE MY20",
        "kpp": "CVT",
        "engine": "2.0",
        "vin": null,
        "color": "KAD - серый ",
        "class": null,
        "year": 2020,
        "price": null,
        "discount_distribute": null,
        "discount_trade-in": null,
        "discount_loyalty": null,
        "price_special": null,
        "benefit": null
    },
    "95":
    {
        "dns": null,
        "priority": null,
        "model": "QASHQAI MC 2.0",
        "compl": "4WD CVT XE MY20",
        "kpp": "CVT",
        "engine": "2.0",
        "vin": null,
        "color": "QAB - белый перламутр ",
        "class": null,
        "year": 2020,
        "price": null,
        "discount_distribute": null,
        "discount_trade-in": null,
        "discount_loyalty": null,
        "price_special": null,
        "benefit": null
    },
    "96":
    {
        "dns": null,
        "priority": null,
        "model": "QASHQAI MC 2.0",
        "compl": "4WD CVT XE MY20",
        "kpp": "CVT",
        "engine": "2.0",
        "vin": null,
        "color": "RBN - синий ",
        "class": null,
        "year": 2020,
        "price": null,
        "discount_distribute": null,
        "discount_trade-in": null,
        "discount_loyalty": null,
        "price_special": null,
        "benefit": null
    },
    "97":
    {
        "dns": null,
        "priority": null,
        "model": "QASHQAI MC 2.0",
        "compl": "4WD CVT XE MY20",
        "kpp": "CVT",
        "engine": "2.0",
        "vin": null,
        "color": "RCA- голубой",
        "class": null,
        "year": 2020,
        "price": null,
        "discount_distribute": null,
        "discount_trade-in": null,
        "discount_loyalty": null,
        "price_special": null,
        "benefit": null
    },
    "103":
    {
        "dns": null,
        "priority": null,
        "model": "X-TRAIL MC 2.0",
        "compl": "2WD CVT SE MY20",
        "kpp": "CVT",
        "engine": "2.0",
        "vin": null,
        "color": "EAN- оливковый",
        "class": null,
        "year": 2020,
        "price": null,
        "discount_distribute": null,
        "discount_trade-in": null,
        "discount_loyalty": null,
        "price_special": null,
        "benefit": null
    },
    "104":
    {
        "dns": null,
        "priority": null,
        "model": "X-TRAIL MC 2.0",
        "compl": "2WD CVT SE MY20",
        "kpp": "CVT",
        "engine": "2.0",
        "vin": null,
        "color": "G41- черный",
        "class": null,
        "year": 2020,
        "price": null,
        "discount_distribute": null,
        "discount_trade-in": null,
        "discount_loyalty": null,
        "price_special": null,
        "benefit": null
    },
    "105":
    {
        "dns": null,
        "priority": null,
        "model": "X-TRAIL MC 2.0",
        "compl": "2WD CVT SE MY20",
        "kpp": "CVT",
        "engine": "2.0",
        "vin": null,
        "color": "G41- черный",
        "class": null,
        "year": 2020,
        "price": null,
        "discount_distribute": null,
        "discount_trade-in": null,
        "discount_loyalty": null,
        "price_special": null,
        "benefit": null
    },
    "106":
    {
        "dns": null,
        "priority": null,
        "model": "X-TRAIL MC 2.0",
        "compl": "2WD CVT SE MY20",
        "kpp": "CVT",
        "engine": "2.0",
        "vin": null,
        "color": "G41- черный",
        "class": null,
        "year": 2020,
        "price": null,
        "discount_distribute": null,
        "discount_trade-in": null,
        "discount_loyalty": null,
        "price_special": null,
        "benefit": null
    },
    "107":
    {
        "dns": null,
        "priority": null,
        "model": "X-TRAIL MC 2.0",
        "compl": "2WD CVT SE MY20",
        "kpp": "CVT",
        "engine": "2.0",
        "vin": null,
        "color": "KAD - серый ",
        "class": null,
        "year": 2020,
        "price": null,
        "discount_distribute": null,
        "discount_trade-in": null,
        "discount_loyalty": null,
        "price_special": null,
        "benefit": null
    },
    "108":
    {
        "dns": null,
        "priority": null,
        "model": "X-TRAIL MC 2.0",
        "compl": "2WD CVT SE MY20",
        "kpp": "CVT",
        "engine": "2.0",
        "vin": null,
        "color": "QAB - белый перламутр ",
        "class": null,
        "year": 2020,
        "price": null,
        "discount_distribute": null,
        "discount_trade-in": null,
        "discount_loyalty": null,
        "price_special": null,
        "benefit": null
    },
    "109":
    {
        "dns": null,
        "priority": null,
        "model": "X-TRAIL MC 2.0",
        "compl": "2WD CVT SE MY20",
        "kpp": "CVT",
        "engine": "2.0",
        "vin": null,
        "color": "RAQ - серо-синий ",
        "class": null,
        "year": 2020,
        "price": null,
        "discount_distribute": null,
        "discount_trade-in": null,
        "discount_loyalty": null,
        "price_special": null,
        "benefit": null
    },
    "110":
    {
        "dns": null,
        "priority": null,
        "model": "X-TRAIL MC 2.0",
        "compl": "2WD CVT SE YANDEX MY20",
        "kpp": "CVT",
        "engine": "2.0",
        "vin": null,
        "color": "EAN- оливковый",
        "class": null,
        "year": 2020,
        "price": null,
        "discount_distribute": null,
        "discount_trade-in": null,
        "discount_loyalty": null,
        "price_special": null,
        "benefit": null
    },
    "111":
    {
        "dns": null,
        "priority": null,
        "model": "X-TRAIL MC 2.0",
        "compl": "2WD CVT SE YANDEX MY20",
        "kpp": "CVT",
        "engine": "2.0",
        "vin": null,
        "color": "G41- черный",
        "class": null,
        "year": 2020,
        "price": null,
        "discount_distribute": null,
        "discount_trade-in": null,
        "discount_loyalty": null,
        "price_special": null,
        "benefit": null
    },
    "112":
    {
        "dns": null,
        "priority": null,
        "model": "X-TRAIL MC 2.0",
        "compl": "2WD CVT SE YANDEX MY20",
        "kpp": "CVT",
        "engine": "2.0",
        "vin": null,
        "color": "RAQ - серо-синий ",
        "class": null,
        "year": 2020,
        "price": null,
        "discount_distribute": null,
        "discount_trade-in": null,
        "discount_loyalty": null,
        "price_special": null,
        "benefit": null
    },
    "113":
    {
        "dns": null,
        "priority": null,
        "model": "X-TRAIL MC 2.0",
        "compl": "2WD CVT SE YANDEX MY20",
        "kpp": "CVT",
        "engine": "2.0",
        "vin": null,
        "color": "RAQ - серо-синий ",
        "class": null,
        "year": 2020,
        "price": null,
        "discount_distribute": null,
        "discount_trade-in": null,
        "discount_loyalty": null,
        "price_special": null,
        "benefit": null
    },
    "114":
    {
        "dns": null,
        "priority": null,
        "model": "X-TRAIL MC 2.0",
        "compl": "2WD CVT SE+ MY20",
        "kpp": "CVT",
        "engine": "2.0",
        "vin": null,
        "color": "EAN- оливковый",
        "class": null,
        "year": 2020,
        "price": null,
        "discount_distribute": null,
        "discount_trade-in": null,
        "discount_loyalty": null,
        "price_special": null,
        "benefit": null
    },
    "115":
    {
        "dns": null,
        "priority": null,
        "model": "X-TRAIL MC 2.0",
        "compl": "2WD CVT SE+ MY20",
        "kpp": "CVT",
        "engine": "2.0",
        "vin": null,
        "color": "G41- черный",
        "class": null,
        "year": 2020,
        "price": null,
        "discount_distribute": null,
        "discount_trade-in": null,
        "discount_loyalty": null,
        "price_special": null,
        "benefit": null
    },
    "116":
    {
        "dns": null,
        "priority": null,
        "model": "X-TRAIL MC 2.0",
        "compl": "2WD CVT SE+ MY20",
        "kpp": "CVT",
        "engine": "2.0",
        "vin": null,
        "color": "G41- черный",
        "class": null,
        "year": 2020,
        "price": null,
        "discount_distribute": null,
        "discount_trade-in": null,
        "discount_loyalty": null,
        "price_special": null,
        "benefit": null
    },
    "117":
    {
        "dns": null,
        "priority": null,
        "model": "X-TRAIL MC 2.0",
        "compl": "2WD CVT SE+ MY20",
        "kpp": "CVT",
        "engine": "2.0",
        "vin": null,
        "color": "G41- черный",
        "class": null,
        "year": 2020,
        "price": null,
        "discount_distribute": null,
        "discount_trade-in": null,
        "discount_loyalty": null,
        "price_special": null,
        "benefit": null
    },
    "118":
    {
        "dns": null,
        "priority": null,
        "model": "X-TRAIL MC 2.0",
        "compl": "2WD CVT SE+ MY20",
        "kpp": "CVT",
        "engine": "2.0",
        "vin": null,
        "color": "G41- черный",
        "class": null,
        "year": 2020,
        "price": null,
        "discount_distribute": null,
        "discount_trade-in": null,
        "discount_loyalty": null,
        "price_special": null,
        "benefit": null
    },
    "119":
    {
        "dns": null,
        "priority": null,
        "model": "X-TRAIL MC 2.0",
        "compl": "2WD CVT SE+ MY20",
        "kpp": "CVT",
        "engine": "2.0",
        "vin": null,
        "color": "G41- черный",
        "class": null,
        "year": 2020,
        "price": null,
        "discount_distribute": null,
        "discount_trade-in": null,
        "discount_loyalty": null,
        "price_special": null,
        "benefit": null
    },
    "120":
    {
        "dns": null,
        "priority": null,
        "model": "X-TRAIL MC 2.0",
        "compl": "2WD CVT SE+ MY20",
        "kpp": "CVT",
        "engine": "2.0",
        "vin": null,
        "color": "K23 - серебристый ",
        "class": null,
        "year": 2020,
        "price": null,
        "discount_distribute": null,
        "discount_trade-in": null,
        "discount_loyalty": null,
        "price_special": null,
        "benefit": null
    },
    "121":
    {
        "dns": null,
        "priority": null,
        "model": "X-TRAIL MC 2.0",
        "compl": "2WD CVT SE+ MY20",
        "kpp": "CVT",
        "engine": "2.0",
        "vin": null,
        "color": "K23 - серебристый ",
        "class": null,
        "year": 2020,
        "price": null,
        "discount_distribute": null,
        "discount_trade-in": null,
        "discount_loyalty": null,
        "price_special": null,
        "benefit": null
    },
    "122":
    {
        "dns": null,
        "priority": null,
        "model": "X-TRAIL MC 2.0",
        "compl": "2WD CVT SE+ MY20",
        "kpp": "CVT",
        "engine": "2.0",
        "vin": null,
        "color": "KAD - серый ",
        "class": null,
        "year": 2020,
        "price": null,
        "discount_distribute": null,
        "discount_trade-in": null,
        "discount_loyalty": null,
        "price_special": null,
        "benefit": null
    },
    "123":
    {
        "dns": null,
        "priority": null,
        "model": "X-TRAIL MC 2.0",
        "compl": "2WD CVT SE+ MY20",
        "kpp": "CVT",
        "engine": "2.0",
        "vin": null,
        "color": "KAD - серый ",
        "class": null,
        "year": 2020,
        "price": null,
        "discount_distribute": null,
        "discount_trade-in": null,
        "discount_loyalty": null,
        "price_special": null,
        "benefit": null
    },
    "124":
    {
        "dns": null,
        "priority": null,
        "model": "X-TRAIL MC 2.0",
        "compl": "2WD CVT SE+ MY20",
        "kpp": "CVT",
        "engine": "2.0",
        "vin": null,
        "color": "KAD - серый ",
        "class": null,
        "year": 2020,
        "price": null,
        "discount_distribute": null,
        "discount_trade-in": null,
        "discount_loyalty": null,
        "price_special": null,
        "benefit": null
    },
    "125":
    {
        "dns": null,
        "priority": null,
        "model": "X-TRAIL MC 2.0",
        "compl": "2WD CVT SE+ MY20",
        "kpp": "CVT",
        "engine": "2.0",
        "vin": null,
        "color": "QAB - белый перламутр ",
        "class": null,
        "year": 2020,
        "price": null,
        "discount_distribute": null,
        "discount_trade-in": null,
        "discount_loyalty": null,
        "price_special": null,
        "benefit": null
    },
    "126":
    {
        "dns": null,
        "priority": null,
        "model": "X-TRAIL MC 2.0",
        "compl": "2WD CVT SE+ MY20",
        "kpp": "CVT",
        "engine": "2.0",
        "vin": null,
        "color": "QAB - белый перламутр ",
        "class": null,
        "year": 2020,
        "price": null,
        "discount_distribute": null,
        "discount_trade-in": null,
        "discount_loyalty": null,
        "price_special": null,
        "benefit": null
    },
    "127":
    {
        "dns": null,
        "priority": null,
        "model": "X-TRAIL MC 2.0",
        "compl": "2WD CVT SE+ MY20",
        "kpp": "CVT",
        "engine": "2.0",
        "vin": null,
        "color": "QAB - белый перламутр ",
        "class": null,
        "year": 2020,
        "price": null,
        "discount_distribute": null,
        "discount_trade-in": null,
        "discount_loyalty": null,
        "price_special": null,
        "benefit": null
    },
    "128":
    {
        "dns": null,
        "priority": null,
        "model": "X-TRAIL MC 2.0",
        "compl": "2WD CVT SE+ MY20",
        "kpp": "CVT",
        "engine": "2.0",
        "vin": null,
        "color": "RAQ - серо-синий ",
        "class": null,
        "year": 2020,
        "price": null,
        "discount_distribute": null,
        "discount_trade-in": null,
        "discount_loyalty": null,
        "price_special": null,
        "benefit": null
    },
    "129":
    {
        "dns": null,
        "priority": null,
        "model": "X-TRAIL MC 2.0",
        "compl": "2WD MT XE MY20",
        "kpp": "M/T",
        "engine": "2.0",
        "vin": null,
        "color": "G41- черный",
        "class": null,
        "year": 2020,
        "price": null,
        "discount_distribute": null,
        "discount_trade-in": null,
        "discount_loyalty": null,
        "price_special": null,
        "benefit": null
    },
    "130":
    {
        "dns": null,
        "priority": null,
        "model": "X-TRAIL MC 2.0",
        "compl": "2WD MT XE MY20",
        "kpp": "M/T",
        "engine": "2.0",
        "vin": null,
        "color": "QAB - белый перламутр ",
        "class": null,
        "year": 2020,
        "price": null,
        "discount_distribute": null,
        "discount_trade-in": null,
        "discount_loyalty": null,
        "price_special": null,
        "benefit": null
    },
    "131":
    {
        "dns": null,
        "priority": null,
        "model": "X-TRAIL MC 2.0",
        "compl": "2WD MT XE MY20",
        "kpp": "M/T",
        "engine": "2.0",
        "vin": null,
        "color": "RAQ - серо-синий ",
        "class": null,
        "year": 2020,
        "price": null,
        "discount_distribute": null,
        "discount_trade-in": null,
        "discount_loyalty": null,
        "price_special": null,
        "benefit": null
    },
    "132":
    {
        "dns": null,
        "priority": null,
        "model": "X-TRAIL MC 2.0",
        "compl": "2WD MT XE MY20",
        "kpp": "M/T",
        "engine": "2.0",
        "vin": null,
        "color": "RAQ - серо-синий ",
        "class": null,
        "year": 2020,
        "price": null,
        "discount_distribute": null,
        "discount_trade-in": null,
        "discount_loyalty": null,
        "price_special": null,
        "benefit": null
    },
    "133":
    {
        "dns": null,
        "priority": null,
        "model": "X-TRAIL MC 2.0",
        "compl": "4WD CVT LE YANDEX MY20",
        "kpp": "CVT",
        "engine": "2.0",
        "vin": null,
        "color": "G41- черный",
        "class": null,
        "year": 2020,
        "price": null,
        "discount_distribute": null,
        "discount_trade-in": null,
        "discount_loyalty": null,
        "price_special": null,
        "benefit": null
    },
    "134":
    {
        "dns": null,
        "priority": null,
        "model": "X-TRAIL MC 2.0",
        "compl": "4WD CVT LE YANDEX MY20",
        "kpp": "CVT",
        "engine": "2.0",
        "vin": null,
        "color": "K23 - серебристый ",
        "class": null,
        "year": 2020,
        "price": null,
        "discount_distribute": null,
        "discount_trade-in": null,
        "discount_loyalty": null,
        "price_special": null,
        "benefit": null
    },
    "135":
    {
        "dns": null,
        "priority": null,
        "model": "X-TRAIL MC 2.0",
        "compl": "4WD CVT LE YANDEX MY20",
        "kpp": "CVT",
        "engine": "2.0",
        "vin": null,
        "color": "QAB - белый перламутр ",
        "class": null,
        "year": 2020,
        "price": null,
        "discount_distribute": null,
        "discount_trade-in": null,
        "discount_loyalty": null,
        "price_special": null,
        "benefit": null
    },
    "136":
    {
        "dns": null,
        "priority": null,
        "model": "X-TRAIL MC 2.0",
        "compl": "4WD CVT LE YANDEX MY20",
        "kpp": "CVT",
        "engine": "2.0",
        "vin": null,
        "color": "RAQ - серо-синий ",
        "class": null,
        "year": 2020,
        "price": null,
        "discount_distribute": null,
        "discount_trade-in": null,
        "discount_loyalty": null,
        "price_special": null,
        "benefit": null
    },
    "137":
    {
        "dns": null,
        "priority": null,
        "model": "X-TRAIL MC 2.0",
        "compl": "4WD CVT LE YANDEX MY20",
        "kpp": "CVT",
        "engine": "2.0",
        "vin": null,
        "color": "RAQ - серо-синий ",
        "class": null,
        "year": 2020,
        "price": null,
        "discount_distribute": null,
        "discount_trade-in": null,
        "discount_loyalty": null,
        "price_special": null,
        "benefit": null
    },
    "138":
    {
        "dns": null,
        "priority": null,
        "model": "X-TRAIL MC 2.0",
        "compl": "4WD CVT LE+ MY20",
        "kpp": "CVT",
        "engine": "2.0",
        "vin": null,
        "color": "G41- черный",
        "class": null,
        "year": 2020,
        "price": null,
        "discount_distribute": null,
        "discount_trade-in": null,
        "discount_loyalty": null,
        "price_special": null,
        "benefit": null
    },
    "139":
    {
        "dns": null,
        "priority": null,
        "model": "X-TRAIL MC 2.0",
        "compl": "4WD CVT LE+ MY20",
        "kpp": "CVT",
        "engine": "2.0",
        "vin": null,
        "color": "KAD - серый ",
        "class": null,
        "year": 2020,
        "price": null,
        "discount_distribute": null,
        "discount_trade-in": null,
        "discount_loyalty": null,
        "price_special": null,
        "benefit": null
    },
    "140":
    {
        "dns": null,
        "priority": null,
        "model": "X-TRAIL MC 2.0",
        "compl": "4WD CVT LE+ MY20",
        "kpp": "CVT",
        "engine": "2.0",
        "vin": null,
        "color": "QAB - белый перламутр ",
        "class": null,
        "year": 2020,
        "price": null,
        "discount_distribute": null,
        "discount_trade-in": null,
        "discount_loyalty": null,
        "price_special": null,
        "benefit": null
    },
    "141":
    {
        "dns": null,
        "priority": null,
        "model": "X-TRAIL MC 2.0",
        "compl": "4WD CVT SE MY20",
        "kpp": "CVT",
        "engine": "2.0",
        "vin": null,
        "color": "KAD - серый ",
        "class": null,
        "year": 2020,
        "price": null,
        "discount_distribute": null,
        "discount_trade-in": null,
        "discount_loyalty": null,
        "price_special": null,
        "benefit": null
    },
    "142":
    {
        "dns": null,
        "priority": null,
        "model": "X-TRAIL MC 2.0",
        "compl": "4WD CVT SE MY20",
        "kpp": "CVT",
        "engine": "2.0",
        "vin": null,
        "color": "QAB - белый перламутр ",
        "class": null,
        "year": 2020,
        "price": null,
        "discount_distribute": null,
        "discount_trade-in": null,
        "discount_loyalty": null,
        "price_special": null,
        "benefit": null
    },
    "143":
    {
        "dns": null,
        "priority": null,
        "model": "X-TRAIL MC 2.0",
        "compl": "4WD CVT SE MY20",
        "kpp": "CVT",
        "engine": "2.0",
        "vin": null,
        "color": "RAQ - серо-синий ",
        "class": null,
        "year": 2020,
        "price": null,
        "discount_distribute": null,
        "discount_trade-in": null,
        "discount_loyalty": null,
        "price_special": null,
        "benefit": null
    },
    "144":
    {
        "dns": null,
        "priority": null,
        "model": "X-TRAIL MC 2.0",
        "compl": "4WD CVT SE YANDEX MY20",
        "kpp": "CVT",
        "engine": "2.0",
        "vin": null,
        "color": "KAD - серый ",
        "class": null,
        "year": 2020,
        "price": null,
        "discount_distribute": null,
        "discount_trade-in": null,
        "discount_loyalty": null,
        "price_special": null,
        "benefit": null
    },
    "145":
    {
        "dns": null,
        "priority": null,
        "model": "X-TRAIL MC 2.0",
        "compl": "4WD CVT SE+ MY20",
        "kpp": "CVT",
        "engine": "2.0",
        "vin": null,
        "color": "G41- черный",
        "class": null,
        "year": 2020,
        "price": null,
        "discount_distribute": null,
        "discount_trade-in": null,
        "discount_loyalty": null,
        "price_special": null,
        "benefit": null
    },
    "146":
    {
        "dns": null,
        "priority": null,
        "model": "X-TRAIL MC 2.0",
        "compl": "4WD CVT SE+ MY20",
        "kpp": "CVT",
        "engine": "2.0",
        "vin": null,
        "color": "G41- черный",
        "class": null,
        "year": 2020,
        "price": null,
        "discount_distribute": null,
        "discount_trade-in": null,
        "discount_loyalty": null,
        "price_special": null,
        "benefit": null
    },
    "147":
    {
        "dns": null,
        "priority": null,
        "model": "X-TRAIL MC 2.0",
        "compl": "4WD CVT SE+ MY20",
        "kpp": "CVT",
        "engine": "2.0",
        "vin": null,
        "color": "QAB - белый перламутр ",
        "class": null,
        "year": 2020,
        "price": null,
        "discount_distribute": null,
        "discount_trade-in": null,
        "discount_loyalty": null,
        "price_special": null,
        "benefit": null
    },
    "148":
    {
        "dns": null,
        "priority": null,
        "model": "X-TRAIL MC 2.0",
        "compl": "4WD CVT SE+ MY20",
        "kpp": "CVT",
        "engine": "2.0",
        "vin": null,
        "color": "QAB - белый перламутр ",
        "class": null,
        "year": 2020,
        "price": null,
        "discount_distribute": null,
        "discount_trade-in": null,
        "discount_loyalty": null,
        "price_special": null,
        "benefit": null
    },
    "149":
    {
        "dns": null,
        "priority": null,
        "model": "X-TRAIL MC 2.0",
        "compl": "4WD CVT SE+ MY20",
        "kpp": "CVT",
        "engine": "2.0",
        "vin": null,
        "color": "QAB - белый перламутр ",
        "class": null,
        "year": 2020,
        "price": null,
        "discount_distribute": null,
        "discount_trade-in": null,
        "discount_loyalty": null,
        "price_special": null,
        "benefit": null
    },
    "150":
    {
        "dns": null,
        "priority": null,
        "model": "X-TRAIL MC 2.0",
        "compl": "4WD CVT SE+ MY20",
        "kpp": "CVT",
        "engine": "2.0",
        "vin": null,
        "color": "QAB - белый перламутр ",
        "class": null,
        "year": 2020,
        "price": null,
        "discount_distribute": null,
        "discount_trade-in": null,
        "discount_loyalty": null,
        "price_special": null,
        "benefit": null
    },
    "151":
    {
        "dns": null,
        "priority": null,
        "model": "X-TRAIL MC 2.0",
        "compl": "4WD CVT SE+ MY20",
        "kpp": "CVT",
        "engine": "2.0",
        "vin": null,
        "color": "QAB - белый перламутр ",
        "class": null,
        "year": 2020,
        "price": null,
        "discount_distribute": null,
        "discount_trade-in": null,
        "discount_loyalty": null,
        "price_special": null,
        "benefit": null
    },
    "152":
    {
        "dns": null,
        "priority": null,
        "model": "X-TRAIL MC 2.0",
        "compl": "4WD CVT SE+ MY20",
        "kpp": "CVT",
        "engine": "2.0",
        "vin": null,
        "color": "QM1- белый",
        "class": null,
        "year": 2020,
        "price": null,
        "discount_distribute": null,
        "discount_trade-in": null,
        "discount_loyalty": null,
        "price_special": null,
        "benefit": null
    },
    "153":
    {
        "dns": null,
        "priority": null,
        "model": "X-TRAIL MC 2.0",
        "compl": "4WD CVT XE+ MY20",
        "kpp": "CVT",
        "engine": "2.0",
        "vin": null,
        "color": "QAB - белый перламутр ",
        "class": null,
        "year": 2020,
        "price": null,
        "discount_distribute": null,
        "discount_trade-in": null,
        "discount_loyalty": null,
        "price_special": null,
        "benefit": null
    },
    "154":
    {
        "dns": null,
        "priority": null,
        "model": "X-TRAIL MC 2.5",
        "compl": "4WD CVT LE TOP MY20",
        "kpp": "CVT",
        "engine": "2.5",
        "vin": null,
        "color": "K23 - серебристый ",
        "class": null,
        "year": 2020,
        "price": null,
        "discount_distribute": null,
        "discount_trade-in": null,
        "discount_loyalty": null,
        "price_special": null,
        "benefit": null
    },
    "155":
    {
        "dns": null,
        "priority": null,
        "model": "X-TRAIL MC 2.5",
        "compl": "4WD CVT LE TOP MY20",
        "kpp": "CVT",
        "engine": "2.5",
        "vin": null,
        "color": "RAQ - серо-синий ",
        "class": null,
        "year": 2020,
        "price": null,
        "discount_distribute": null,
        "discount_trade-in": null,
        "discount_loyalty": null,
        "price_special": null,
        "benefit": null
    },
    "156":
    {
        "dns": null,
        "priority": null,
        "model": "X-TRAIL MC 2.5",
        "compl": "4WD CVT LE YANDEX MY20",
        "kpp": "CVT",
        "engine": "2.5",
        "vin": null,
        "color": "G41- черный",
        "class": null,
        "year": 2020,
        "price": null,
        "discount_distribute": null,
        "discount_trade-in": null,
        "discount_loyalty": null,
        "price_special": null,
        "benefit": null
    },
    "157":
    {
        "dns": null,
        "priority": null,
        "model": "X-TRAIL MC 2.5",
        "compl": "4WD CVT LE YANDEX MY20",
        "kpp": "CVT",
        "engine": "2.5",
        "vin": null,
        "color": "KAD - серый ",
        "class": null,
        "year": 2020,
        "price": null,
        "discount_distribute": null,
        "discount_trade-in": null,
        "discount_loyalty": null,
        "price_special": null,
        "benefit": null
    },
    "158":
    {
        "dns": null,
        "priority": null,
        "model": "X-TRAIL MC 2.5",
        "compl": "4WD CVT LE+ MY20",
        "kpp": "CVT",
        "engine": "2.5",
        "vin": null,
        "color": "QAB - белый перламутр ",
        "class": null,
        "year": 2020,
        "price": null,
        "discount_distribute": null,
        "discount_trade-in": null,
        "discount_loyalty": null,
        "price_special": null,
        "benefit": null
    },
    "159":
    {
        "dns": null,
        "priority": null,
        "model": null,
        "compl": null,
        "kpp": null,
        "engine": null,
        "vin": null,
        "color": null,
        "class": null,
        "year": null,
        "price": null,
        "discount_distribute": null,
        "discount_trade-in": null,
        "discount_loyalty": null,
        "price_special": null,
        "benefit": null
    }
}